[
	{
	 "_id" : "0",
	 "name": "Realiability-based optimisation"
	},
	{
	 "_id" : "1",
	 "name": "Realiability-based optimisation"
	},
	{
	 "_id" : "2",
	 "name": "Realiability-based optimisation"
	},
	{
	 "_id" : "3",
	 "name": "Realiability-based optimisation"
	},
	{
	 "_id" : "4",
	 "name": "Realiability-based optimisation"
	},
	{
	 "_id" : "5",
	 "name": "Realiability-based optimisation"
	}
]
